\relax 
\providecommand\hyper@newdestlabel[2]{}
\providecommand\HyperFirstAtBeginDocument{\AtBeginDocument}
\HyperFirstAtBeginDocument{\ifx\hyper@anchor\@undefined
\global\let\oldcontentsline\contentsline
\gdef\contentsline#1#2#3#4{\oldcontentsline{#1}{#2}{#3}}
\global\let\oldnewlabel\newlabel
\gdef\newlabel#1#2{\newlabelxx{#1}#2}
\gdef\newlabelxx#1#2#3#4#5#6{\oldnewlabel{#1}{{#2}{#3}}}
\AtEndDocument{\ifx\hyper@anchor\@undefined
\let\contentsline\oldcontentsline
\let\newlabel\oldnewlabel
\fi}
\fi}
\global\let\hyper@last\relax 
\gdef\HyperFirstAtBeginDocument#1{#1}
\providecommand\HyField@AuxAddToFields[1]{}
\providecommand\HyField@AuxAddToCoFields[2]{}
\citation{feynman1979book}
\citation{hyldgaard2012jopcm,hyldgaard2008prb}
\citation{hyldgaard2012jopcm,hyldgaard2008prb}
\newlabel{FirstPage}{{}{1}{}{Doc-Start}{}}
\@writefile{toc}{\contentsline {section}{\numberline {I}Introduction}{1}{section*.1}}
\newlabel{introduction}{{I}{1}{}{section*.1}{}}
\newlabel{introductionfeynmaninternalenergyforce}{{1}{1}{}{equation.1.1}{}}
\newlabel{introductionfeynmaninternalenergyforceopensystemwrong}{{2}{1}{}{equation.1.2}{}}
\newlabel{introductionfeynmaninternalenergyforceopensystemcorrect}{{3}{1}{}{equation.1.3}{}}
\@writefile{toc}{\contentsline {section}{\numberline {II}Theory}{1}{section*.2}}
\@writefile{toc}{\contentsline {subsection}{\numberline {A}Canonical Grand-Potential $\Omega $}{1}{section*.3}}
\newlabel{grandpotential}{{II\tmspace  +\thinmuskip {.1667em}A}{1}{}{section*.3}{}}
\citation{han2007mapping,han2007relativistic,han2011effective,han2012imaginary,han2013energy}
\citation{ness2014nonequilibriumdensity,ness2017nonequilibriumthermodynamics}
\citation{ness2014nonequilibriumdensity,ness2017nonequilibriumthermodynamics}
\citation{ness2014nonequilibriumdensity,ness2017nonequilibriumthermodynamics}
\newlabel{legendretransformsectiongrandpotential}{{4}{2}{}{equation.2.4}{}}
\newlabel{legendretransformoperatorssectiongrandpotential}{{5}{2}{}{equation.2.5}{}}
\newlabel{energyaverages}{{6}{2}{}{equation.2.6}{}}
\@writefile{toc}{\contentsline {subsection}{\numberline {B}Nonequilibrium statistical operator $\mathaccentV {hat}05E{Y}$}{2}{section*.4}}
\newlabel{gibbsoperator}{{II\tmspace  +\thinmuskip {.1667em}B}{2}{}{section*.4}{}}
\newlabel{hamiltonianlsopbasis}{{7}{2}{}{equation.2.7}{}}
\newlabel{yqnoneqlsopbasis}{{8}{2}{}{equation.2.8}{}}
\newlabel{yenoneqlsopbasis}{{9}{2}{}{equation.2.9}{}}
\newlabel{betainversetemperatureeffective}{{10}{2}{}{equation.2.10}{}}
\newlabel{yqnoneqlsopbasiswithtemperaturegradient}{{11}{2}{}{equation.2.11}{}}
\citation{stefanucci2013book,stefanucci2009kadanoff,stefanucci2004partitionfree}
\citation{hyldgaard2012jopcm,hyldgaard2008prb}
\citation{schlegel1971redundant}
\citation{schlegel2003qmmm}
\newlabel{numberoplsopbasis}{{12}{3}{}{equation.2.12}{}}
\newlabel{numberopsumperreservoir}{{13}{3}{}{equation.2.13}{}}
\newlabel{yqnoneqlsopsinglereservoir}{{14}{3}{}{equation.2.14}{}}
\newlabel{yenoneqlsopsinglereservoir}{{15}{3}{}{equation.2.15}{}}
\newlabel{glessgtropfirst}{{16}{3}{}{equation.2.16}{}}
\newlabel{glessgtropfirstexpresseddbasisji}{{17}{3}{}{equation.2.17}{}}
\newlabel{glessgtropconvolutionsigmalessgtr}{{18}{3}{}{equation.2.18}{}}
\newlabel{glessgtropfouriersigmalessgtr}{{19}{3}{}{equation.2.19}{}}
\newlabel{glessgtropfouriersigmalessgtrpartial}{{20}{3}{}{equation.2.20}{}}
\newlabel{yqnoneqfirstquantization}{{21}{3}{}{equation.2.21}{}}
\newlabel{yenoneqfirstquantization}{{22}{3}{}{equation.2.22}{}}
\newlabel{ynoneqfirstquantization}{{23}{3}{}{equation.2.23}{}}
\@writefile{toc}{\contentsline {subsection}{\numberline {C}Forces}{3}{section*.5}}
\citation{stefanucci2013book}
\@writefile{toc}{\contentsline {subsection}{\numberline {D}Analytical derivatives}{4}{section*.6}}
\newlabel{derivatives}{{II\tmspace  +\thinmuskip {.1667em}D}{4}{}{section*.6}{}}
\newlabel{analyticalderivativesgeneraloperator}{{25}{4}{}{equation.2.25}{}}
\@writefile{toc}{\contentsline {subsection}{\numberline {E}Transient}{4}{section*.7}}
\newlabel{glessermatequationkadanoffbayminteractingtheme16}{{28}{4}{}{equation.2.28}{}}
\newlabel{glessermatsolutionkadanoffbayminteractingtheme16}{{29}{5}{}{equation.2.29}{}}
\newlabel{aspectralmatsolutionkadanoffbayminteractingtheme16}{{30}{5}{}{equation.2.30}{}}
\newlabel{aspectralmatsolutionkadanoffbayminteractingtheme16}{{31}{5}{}{equation.2.31}{}}
\@writefile{toc}{\contentsline {subsection}{\numberline {F}Analytical derivatives and forces}{5}{section*.8}}
\@writefile{toc}{\contentsline {section}{\numberline {III}Results}{5}{section*.9}}
\newlabel{results}{{III}{5}{}{section*.9}{}}
\@writefile{lof}{\contentsline {figure}{\numberline {1}{\ignorespaces Toy representation of an atomic contact between which an atom can be moved by means of bias or temperature, following the gradient of the canonical grand potential $\Omega $}}{5}{figure.1}}
\newlabel{PuntasAtomosCurvaEnergia}{{1}{5}{Toy representation of an atomic contact between which an atom can be moved by means of bias or temperature, following the gradient of the canonical grand potential $\Omega $}{figure.1}{}}
\@writefile{toc}{\contentsline {subsection}{\numberline {A}Atom adsorption onto a single electrode: checking the method}{5}{section*.10}}
\newlabel{singleelectrode}{{III\tmspace  +\thinmuskip {.1667em}A}{5}{}{section*.10}{}}
\@writefile{toc}{\contentsline {subsubsection}{\numberline {1}Noninteracting electrons}{5}{section*.11}}
\newlabel{singleelectrodenoninteracting}{{III\tmspace  +\thinmuskip {.1667em}A\tmspace  +\thinmuskip {.1667em}1}{5}{}{section*.11}{}}
\citation{frisch2009gaussian}
\@writefile{lof}{\contentsline {figure}{\numberline {2}{\ignorespaces Two different systems to be compared. System (a) is a finite chain to whose tip the red adatom can be chemisorbed, developing the internal energy $U$ vs. position $x$ curve. System (b) is an infinite chain, modelled by a 1D-reservoir, to whose tip the red adatom can be also chemisorbed, developing, in this case, the canonical grand potential $\Omega $ vs. position $x$ curve.}}{6}{figure.2}}
\newlabel{CompareChains}{{2}{6}{Two different systems to be compared. System (a) is a finite chain to whose tip the red adatom can be chemisorbed, developing the internal energy $U$ vs. position $x$ curve. System (b) is an infinite chain, modelled by a 1D-reservoir, to whose tip the red adatom can be also chemisorbed, developing, in this case, the canonical grand potential $\Omega $ vs. position $x$ curve}{figure.2}{}}
\@writefile{toc}{\contentsline {subsubsection}{\numberline {2}Interacting electrons}{6}{section*.12}}
\newlabel{singleelectrodeinteracting}{{III\tmspace  +\thinmuskip {.1667em}A\tmspace  +\thinmuskip {.1667em}2}{6}{}{section*.12}{}}
\@writefile{lof}{\contentsline {figure}{\numberline {3}{\ignorespaces Energy-distance curves for the adsorption of an adatom on the tip of a chain. The blue dotted line represents the internal energy $U$ curve for the adsorption on a finite 20-atom chain. The purple, brown and red lines, which lie far below the dotted one, represent the internal energies $U$ of 2-, 3- and 4-atom chains connected to an infinite reservoir chain providing the open boundary conditions, which are not correct. The blue, red and yellow lines, which approach progressively the dotted one, represent the canonical grand potential $\Omega $ of 2-, 3- and 4-atom chains connected to an infinite reservoir chain providing the open boundary conditions, which are correct.}}{6}{figure.3}}
\newlabel{Single-Electrode-Mathematica-Gibbs-Operator}{{3}{6}{Energy-distance curves for the adsorption of an adatom on the tip of a chain. The blue dotted line represents the internal energy $U$ curve for the adsorption on a finite 20-atom chain. The purple, brown and red lines, which lie far below the dotted one, represent the internal energies $U$ of 2-, 3- and 4-atom chains connected to an infinite reservoir chain providing the open boundary conditions, which are not correct. The blue, red and yellow lines, which approach progressively the dotted one, represent the canonical grand potential $\Omega $ of 2-, 3- and 4-atom chains connected to an infinite reservoir chain providing the open boundary conditions, which are correct}{figure.3}{}}
\@writefile{toc}{\contentsline {subsection}{\numberline {B}Two electrodes}{6}{section*.13}}
\newlabel{twoelectrodes}{{III\tmspace  +\thinmuskip {.1667em}B}{6}{}{section*.13}{}}
\@writefile{lof}{\contentsline {figure}{\numberline {4}{\ignorespaces Energy-distance curves for the adsorption of an adatom on the tip of a chain. The blue line represents the internal energy $U$ curve for the adsorption on a finite 20-atom chain. The red discontinuous line represents the internal energies $U$ of a 6-atom chain connected to an infinite reservoir providing the open boundary conditions. The yellow dotted line, which approaches the blue one, represent the canonical grand potential $\Omega $ of 6-atom chain connected to an infinite reservoir providing the open boundary conditions.}}{7}{figure.4}}
\newlabel{RHF-UHF-ESCALON-FIGURA-TESIS}{{4}{7}{Energy-distance curves for the adsorption of an adatom on the tip of a chain. The blue line represents the internal energy $U$ curve for the adsorption on a finite 20-atom chain. The red discontinuous line represents the internal energies $U$ of a 6-atom chain connected to an infinite reservoir providing the open boundary conditions. The yellow dotted line, which approaches the blue one, represent the canonical grand potential $\Omega $ of 6-atom chain connected to an infinite reservoir providing the open boundary conditions}{figure.4}{}}
\@writefile{lof}{\contentsline {figure}{\numberline {5}{\ignorespaces Energy-distance curves for the adsorption of an adatom on the tip of a chain. The blue dotted line represents the internal energy $U$ curve for the adsorption on a finite 20-atom chain. The purple, brown and red lines, which lie far below the dotted one, represent the internal energies $U$ of 2-, 3- and 4-atom chains connected to an infinite reservoir chain providing the open boundary conditions, which are not correct. The blue, red and yellow lines, which approach progressively the dotted one, represent the canonical grand potential $\Omega $ of 2-, 3- and 4-atom chains connected to an infinite reservoir chain providing the open boundary conditions, which are correct.}}{7}{figure.5}}
\newlabel{BiasChainsMovePlatesMoveAtom}{{5}{7}{Energy-distance curves for the adsorption of an adatom on the tip of a chain. The blue dotted line represents the internal energy $U$ curve for the adsorption on a finite 20-atom chain. The purple, brown and red lines, which lie far below the dotted one, represent the internal energies $U$ of 2-, 3- and 4-atom chains connected to an infinite reservoir chain providing the open boundary conditions, which are not correct. The blue, red and yellow lines, which approach progressively the dotted one, represent the canonical grand potential $\Omega $ of 2-, 3- and 4-atom chains connected to an infinite reservoir chain providing the open boundary conditions, which are correct}{figure.5}{}}
\newlabel{yqnoneqmoveatomsbiastwoelectrodescentralregion}{{35}{7}{}{equation.3.35}{}}
\@writefile{toc}{\contentsline {subsection}{\numberline {C}Attraction between the plates of a quantum capacitor}{7}{section*.14}}
\newlabel{quantumcapacitormoveplates}{{III\tmspace  +\thinmuskip {.1667em}C}{7}{}{section*.14}{}}
\@writefile{toc}{\contentsline {subsection}{\numberline {D}Electromigration of an atom between two electrodes}{7}{section*.15}}
\newlabel{twoelectrodes}{{III\tmspace  +\thinmuskip {.1667em}D}{7}{}{section*.15}{}}
\citation{han2007mapping}
\@writefile{lof}{\contentsline {figure}{\numberline {6}{\ignorespaces Energy curves for the separation of the two plates of a quantum 1D atomic capacitor consisting of two semiinfinite chains. The tip-tip distance is represented in the horizontal axis, while the vertical one represents the calculated canonical grand potential $\Omega $.}}{8}{figure.6}}
\newlabel{moveplatesbias}{{6}{8}{Energy curves for the separation of the two plates of a quantum 1D atomic capacitor consisting of two semiinfinite chains. The tip-tip distance is represented in the horizontal axis, while the vertical one represents the calculated canonical grand potential $\Omega $}{figure.6}{}}
\@writefile{toc}{\contentsline {subsubsection}{\numberline {1}Equilibrium}{8}{section*.16}}
\@writefile{lof}{\contentsline {figure}{\numberline {7}{\ignorespaces Energy curves for an atom moving between two diatomic single-orbital tips with two vacancies between them. The tip-tip distance is three times the lattice parameter of the chains. The blue curve represents the internal energy $U$ vs. position, while the red dashed curve represents the grand potential $\Omega $ vs. position curves.}}{8}{figure.7}}
\newlabel{holes2bias00VTrueFunctionalFuncPlusNuclearCompare}{{7}{8}{Energy curves for an atom moving between two diatomic single-orbital tips with two vacancies between them. The tip-tip distance is three times the lattice parameter of the chains. The blue curve represents the internal energy $U$ vs. position, while the red dashed curve represents the grand potential $\Omega $ vs. position curves}{figure.7}{}}
\@writefile{toc}{\contentsline {subsubsection}{\numberline {2}Nonequilibrium bias}{8}{section*.17}}
\newlabel{nonequilibriumbias}{{III\tmspace  +\thinmuskip {.1667em}D\tmspace  +\thinmuskip {.1667em}2}{8}{}{section*.17}{}}
\@writefile{lof}{\contentsline {figure}{\numberline {8}{\ignorespaces Energy curves for an atom moving between two diatomic single-orbital tips with two vacancies between them. Thus, the tip-tip distance is three times the lattice parameter of the chains. All the curves represent the grand potential $\Omega $ vs. position curves at different applied voltages.}}{8}{figure.8}}
\newlabel{moveatombias2holes}{{8}{8}{Energy curves for an atom moving between two diatomic single-orbital tips with two vacancies between them. Thus, the tip-tip distance is three times the lattice parameter of the chains. All the curves represent the grand potential $\Omega $ vs. position curves at different applied voltages}{figure.8}{}}
\@writefile{toc}{\contentsline {subsection}{\numberline {E}Nonequilibrium temperature}{8}{section*.18}}
\newlabel{nonequilibriumtemperature}{{III\tmspace  +\thinmuskip {.1667em}E}{8}{}{section*.18}{}}
\@writefile{lof}{\contentsline {figure}{\numberline {9}{\ignorespaces Energy curves for an atom moving between two diatomic single-orbital tips with two vacancies between them. The tip-tip distance is three times the lattice parameter of the chains. All the curves represent the grand potential $\Omega $ vs. position curves at different applied temperature gradients.}}{9}{figure.9}}
\newlabel{moveatomstemperaturecurves}{{9}{9}{Energy curves for an atom moving between two diatomic single-orbital tips with two vacancies between them. The tip-tip distance is three times the lattice parameter of the chains. All the curves represent the grand potential $\Omega $ vs. position curves at different applied temperature gradients}{figure.9}{}}
\@writefile{toc}{\contentsline {subsection}{\numberline {F}Alternative formulation in terms of the current operator}{9}{section*.19}}
\newlabel{gibbsoperatorcurrent}{{III\tmspace  +\thinmuskip {.1667em}F}{9}{}{section*.19}{}}
\newlabel{yqnoneqintermsofcurrent}{{36}{9}{}{equation.3.36}{}}
\@writefile{lof}{\contentsline {figure}{\numberline {10}{\ignorespaces Variation of the ensemble average $\delimiter "426830A \mathaccentV {hat}05E{Y}^Q\delimiter "526930B $ with the distance for a symmetric atomic 1D-contact. The blue lines display the voltage based conventional expression $\delimiter "426830A \mathaccentV {hat}05E{Y}^Q\delimiter "526930B $ while the red discontinuous ones represent $\delimiter "426830A \mathaccentV {hat}05E{Y}^Q_I\delimiter "526930B $. Results for voltages of $0.1 V$, $0.2 V$ and $0.3 V$ are shown in subfigures (a), (b) and (c) respectively.}}{9}{figure.10}}
\newlabel{CompareYHanCurrent}{{III\tmspace  +\thinmuskip {.1667em}F}{9}{}{figure.10}{}}
\@writefile{toc}{\contentsline {section}{\numberline {IV}Conclusions}{9}{section*.20}}
\@writefile{toc}{\contentsline {section}{\numberline {}Acknowledgments}{9}{section*.21}}
\@writefile{toc}{\appendix }
\@writefile{toc}{\contentsline {section}{\numberline {}Appendices}{9}{section*.22}}
\@writefile{toc}{\contentsline {section}{Appendices}{9}{section*.22}}
\@writefile{toc}{\contentsline {subsection}{\numberline {A}Hamiltonian}{9}{section*.23}}
\newlabel{hamiltonianlseigen}{{37}{9}{}{equation.Alph0.37}{}}
\citation{datta1995book,caroli1971direct}
\citation{stefanucci2013book}
\citation{stefanucci2013book}
\newlabel{numberlseigen}{{38}{10}{}{equation.Alph0.38}{}}
\newlabel{basischangelstod}{{39}{10}{}{equation.Alph0.39}{}}
\newlabel{hamiltonian0seconddbasis}{{40}{10}{}{equation.Alph0.40}{}}
\newlabel{hamiltonianintseconddbasis}{{41}{10}{}{equation.Alph0.41}{}}
\newlabel{hamiltonian0first}{{42}{10}{}{equation.Alph0.42}{}}
\@writefile{toc}{\contentsline {subsection}{\numberline {B}Green's function}{10}{section*.24}}
\newlabel{sectiongf}{{\tmspace  +\thinmuskip {.1667em}B}{10}{}{section*.24}{}}
\newlabel{gfopsecondlsop}{{43}{10}{}{equation.Alph0.43}{}}
\newlabel{gflsop}{{44}{10}{}{equation.Alph0.44}{}}
\newlabel{lsopindepofmatsubaratime}{{45}{10}{}{equation.Alph0.45}{}}
\newlabel{lsopanticommutator}{{46}{10}{}{equation.Alph0.46}{}}
\newlabel{numberensemblelsop}{{47}{10}{}{equation.Alph0.47}{}}
\citation{stefanucci2013book,stefanucci2009kadanoff}
\newlabel{currentlsop}{{48}{11}{}{equation.Alph0.48}{}}
\newlabel{currentensemblelsop}{{49}{11}{}{equation.Alph0.49}{}}
\newlabel{gfopfirst}{{50}{11}{}{equation.Alph0.50}{}}
\newlabel{gfopfirstmatelemposit}{{51}{11}{}{equation.Alph0.51}{}}
\newlabel{gfmatelemjidbasis}{{52}{11}{}{equation.Alph0.52}{}}
\newlabel{gfdecomposedbasisjibrakets}{{53}{11}{}{equation.Alph0.53}{}}
\newlabel{gfopexpresseddbasisji}{{54}{11}{}{equation.Alph0.54}{}}
\newlabel{gfopmatelemji}{{55}{11}{}{equation.Alph0.55}{}}
\newlabel{gfkadanoffbaymnoninteracting1}{{56}{11}{}{equation.Alph0.56}{}}
\newlabel{gfkadanoffbaymnoninteracting2adjoint}{{57}{11}{}{equation.Alph0.57}{}}
\newlabel{gfopkadanoffbaymnoninteracting1}{{58}{11}{}{equation.Alph0.58}{}}
\newlabel{gfopkadanoffbaymnoninteracting2adjoint}{{59}{11}{}{equation.Alph0.59}{}}
\citation{stefanucci2013book,stefanucci2009kadanoff}
\newlabel{glessermatelemjidbasis}{{60}{12}{}{equation.Alph0.60}{}}
\@writefile{toc}{\contentsline {subsection}{\numberline {C}Mean Field Theory: Hartree-Fock method}{12}{section*.25}}
\newlabel{meanfieldtheory}{{\tmspace  +\thinmuskip {.1667em}C}{12}{}{section*.25}{}}
\newlabel{gfkadanoffbayminteracting1}{{61}{12}{}{equation.Alph0.61}{}}
\newlabel{gfkadanoffbayminteracting2adjoint}{{62}{12}{}{equation.Alph0.62}{}}
\newlabel{g2hartreefock}{{63}{12}{}{equation.Alph0.63}{}}
\newlabel{gfkadanoffbayminteractinghartreefock1}{{64}{12}{}{equation.Alph0.64}{}}
\citation{stefanucci2013book}
\newlabel{gfkadanoffbayminteractinghartreefock2adjoint}{{65}{13}{}{equation.Alph0.65}{}}
\newlabel{selfenergyfromkadanoffbayminteracting}{{66}{13}{}{equation.Alph0.66}{}}
\newlabel{selfenergyfromkadanoffbayminteracting}{{67}{13}{}{equation.Alph0.67}{}}
\newlabel{g1kadanoffbaymhartreefock}{{68}{13}{}{equation.Alph0.68}{}}
\newlabel{interactionhartreeinkadanoffbaymhartreefock}{{69}{13}{}{equation.Alph0.69}{}}
\newlabel{interactioninkadanoffbaymhartreefock}{{70}{13}{}{equation.Alph0.70}{}}
\newlabel{hartreefockpotential}{{71}{13}{}{equation.Alph0.71}{}}
\newlabel{numberopfromg1hartreefock}{{72}{13}{}{equation.Alph0.72}{}}
\citation{hyldgaard2012jopcm,hyldgaard2008prb}
\citation{stefanucci2013book,stefanucci2004partitionfree}
\newlabel{hartreefockpotentialoperator}{{73}{14}{}{equation.Alph0.73}{}}
\newlabel{g1opkadanoffbaymhartreefock}{{74}{14}{}{equation.Alph0.74}{}}
\newlabel{interactiongeneralpotentialoperatorkadanoffbaym}{{75}{14}{}{equation.Alph0.75}{}}
\newlabel{g1opkadanoffbaymgeneralsuitablefordft}{{76}{14}{}{equation.Alph0.76}{}}
\@writefile{toc}{\contentsline {subsection}{\numberline {D}Keldysh Components in steady-state}{14}{section*.26}}
\newlabel{allkeldyshcomponents}{{\tmspace  +\thinmuskip {.1667em}D}{14}{}{section*.26}{}}
\newlabel{gfopranoninteractingfourierkeldyshcomponents}{{77}{14}{}{equation.Alph0.77}{}}
\newlabel{gfoprainteractingfourierkeldyshcomponents}{{78}{14}{}{equation.Alph0.78}{}}
\newlabel{sigmaophfkeldyshcomponents}{{79}{14}{}{equation.Alph0.79}{}}
\newlabel{sigmaopcorrelationkeldyshcomponents}{{80}{14}{}{equation.Alph0.80}{}}
\newlabel{sigmalesseropselfenergyembeddingop}{{81}{14}{}{equation.Alph0.81}{}}
\newlabel{fermifunctions}{{82}{14}{}{equation.Alph0.82}{}}
\citation{datta1995book,caroli1971direct}
\citation{datta1995book,caroli1971direct}
\newlabel{gammaopselfenergyembeddingop}{{83}{15}{}{equation.Alph0.83}{}}
\newlabel{sigmaopcorrelationselfenergyembeddingopfourier}{{84}{15}{}{equation.Alph0.84}{}}
\newlabel{sigmaopmatsubaraselfenergyembeddingopfourier}{{85}{15}{}{equation.Alph0.85}{}}
\newlabel{spectralopallkeldyshfourier}{{86}{15}{}{equation.Alph0.86}{}}
\newlabel{glesseropallkeldyshfourier}{{87}{15}{}{equation.Alph0.87}{}}
\newlabel{densitymatrixfromglessersteadystatefourier}{{88}{15}{}{equation.Alph0.88}{}}
\newlabel{glropallkeldyshfourier}{{89}{15}{}{equation.Alph0.89}{}}
\newlabel{gopmatsubaraallkeldyshfourier}{{90}{15}{}{equation.Alph0.90}{}}
\@writefile{toc}{\contentsline {subsection}{\numberline {E}The Embedding Self-Energy}{15}{section*.27}}
\newlabel{selfenergy}{{\tmspace  +\thinmuskip {.1667em}E}{15}{}{section*.27}{}}
\newlabel{gfmatkadanoffbayminteracting1}{{91}{15}{}{equation.Alph0.91}{}}
\newlabel{gfmatkadanoffbayminteracting2adjoint}{{92}{15}{}{equation.Alph0.92}{}}
\newlabel{gfkadanoffbayminteractingselfenergyconditions}{{93}{15}{}{equation.Alph0.93}{}}
\newlabel{gfmatkadanoffbayminteractingcentralregion}{{95}{16}{}{equation.Alph0.95}{}}
\newlabel{gfmatkadanoffbayminteractingoverlapalphac}{{96}{16}{}{equation.Alph0.96}{}}
\newlabel{gfmatkadanoffbayminteractingoverlapalphacsolution}{{97}{16}{}{equation.Alph0.97}{}}
\newlabel{gfkadanoffbaymnoninteracting1contact}{{98}{16}{}{equation.Alph0.98}{}}
\newlabel{gfkadanoffbaymnoninteracting1contactoffdiagonal}{{99}{16}{}{equation.Alph0.99}{}}
\newlabel{gfmatkadanoffbayminteractingcentralregionembedding}{{100}{16}{}{equation.Alph0.100}{}}
\newlabel{sigmamatkadanoffbayminteractingcentralregionembedding}{{101}{16}{}{equation.Alph0.101}{}}
\newlabel{gfmatkadanoffbayminteractingcentralregionselfenergyfinal}{{102}{16}{}{equation.Alph0.102}{}}
\newlabel{gfmatkadanoffbayminteractingreservoir}{{103}{16}{}{equation.Alph0.103}{}}
\newlabel{gfmatkadanoffbayminteractingoverlapalphacsolutionadjoint}{{104}{16}{}{equation.Alph0.104}{}}
\newlabel{gfmatkadanoffbayminteractingreservoirselfenergyfinal}{{105}{16}{}{equation.Alph0.105}{}}
\newlabel{inbeddingselfenergytimedomain}{{106}{17}{}{equation.Alph0.106}{}}
\newlabel{gfmatkadanoffbayminteractingreservoirselfenergyfinalintegrated}{{107}{17}{}{equation.Alph0.107}{}}
\newlabel{sigmamatkadanoffbayminteractingcentralregionembeddingfourier}{{108}{17}{}{equation.Alph0.108}{}}
\newlabel{sigmaopkadanoffbayminteractingcentralregionembeddingfourierconv1quant}{{109}{17}{}{equation.Alph0.109}{}}
\newlabel{sigmamatkadanoffbayminteractingcentralregionembeddingfourierconv1quantsimp}{{110}{17}{}{equation.Alph0.110}{}}
\newlabel{sigmaopkadanoffbayminteractingcentralregionembeddingfourier1quant}{{111}{17}{}{equation.Alph0.111}{}}
\newlabel{sigmaopselfenergyembeddingalphaop}{{112}{17}{}{equation.Alph0.112}{}}
\newlabel{spectralopalphareservoirallkeldyshfourier}{{113}{17}{}{equation.Alph0.113}{}}
\newlabel{glesseralphaop}{{114}{17}{}{equation.Alph0.114}{}}
\newlabel{selfenergylesseralphaop}{{115}{17}{}{equation.Alph0.115}{}}
\newlabel{selfenergygreateralphaop}{{116}{17}{}{equation.Alph0.116}{}}
\newlabel{gfmatkadanoffbayminteractingreservoirselfenergyfinalintegratedfourier}{{117}{17}{}{equation.Alph0.117}{}}
\newlabel{gfopfirstkadanoffbayminteractingreservoirselfenergyfinalintegratedfourier}{{118}{17}{}{equation.Alph0.118}{}}
\newlabel{densitymatrixpartialspectralfromglessersteadystatefourier}{{119}{18}{}{equation.Alph0.119}{}}
\newlabel{partialnumberofparticles}{{120}{18}{}{equation.Alph0.120}{}}
\@writefile{toc}{\contentsline {subsection}{\numberline {F}Ensemble Averages}{18}{section*.28}}
\newlabel{ensembleaverages}{{\tmspace  +\thinmuskip {.1667em}F}{18}{}{section*.28}{}}
\newlabel{zpartitionfunction}{{121}{18}{}{equation.Alph0.121}{}}
\newlabel{densitymatrixopfirstbasispsik}{{122}{18}{}{equation.Alph0.122}{}}
\newlabel{hamiltonianandmatsubarafromdensitymatrixeigenstates}{{123}{18}{}{equation.Alph0.123}{}}
\newlabel{averageoperatorlsop}{{124}{18}{}{equation.Alph0.124}{}}
\newlabel{matsubaraintegral}{{125}{18}{}{equation.Alph0.125}{}}
\@writefile{lof}{\contentsline {figure}{\numberline {11}{\ignorespaces Contour for the Hamiltonian $\mathaccentV {hat}05E{H}(z)$ to calculate the time-dependent ensemble average of any operator in a system whose time-evolution is governed by the Hamiltonian $\mathaccentV {hat}05E{H}(z)$ from the initial equilibrium in $t_0$. The system is supposed to be at temperature $T$, being $\beta = 1/(k_B T)$.}}{18}{figure.11}}
\newlabel{MatsubaraPath}{{11}{18}{Contour for the Hamiltonian $\hat {H}(z)$ to calculate the time-dependent ensemble average of any operator in a system whose time-evolution is governed by the Hamiltonian $\hat {H}(z)$ from the initial equilibrium in $t_0$. The system is supposed to be at temperature $T$, being $\beta = 1/(k_B T)$}{figure.11}{}}
\newlabel{averageoperatorlsop2}{{126}{18}{}{equation.Alph0.126}{}}
\newlabel{averageoperatorlsopr}{{127}{18}{}{equation.Alph0.127}{}}
\newlabel{onebodyoperator}{{128}{18}{}{equation.Alph0.128}{}}
\newlabel{averageonebodyoperatorfromglesser}{{129}{18}{}{equation.Alph0.129}{}}
\citation{stefanucci2013book}
\newlabel{averageonebodyoperatorfromtracedensitymatrix}{{130}{19}{}{equation.Alph0.130}{}}
\@writefile{toc}{\contentsline {subsection}{\numberline {G}Dyson Equation}{19}{section*.29}}
\newlabel{dysonequation}{{\tmspace  +\thinmuskip {.1667em}G}{19}{}{section*.29}{}}
\newlabel{dysoneqspositionrepresentation}{{131}{19}{}{equation.Alph0.131}{}}
\newlabel{dysoneqsdbasisijrepresentation}{{132}{19}{}{equation.Alph0.132}{}}
\newlabel{dysoneqsoperator}{{133}{19}{}{equation.Alph0.133}{}}
\@writefile{toc}{\contentsline {subsection}{\numberline {H}Interaction from the two-body Green's function}{19}{section*.30}}
\newlabel{InteractionFromG2}{{\tmspace  +\thinmuskip {.1667em}H}{19}{}{section*.30}{}}
\newlabel{g2opsecondlsopdop}{{134}{19}{}{equation.Alph0.134}{}}
\newlabel{completenesrelationspositionrep1}{{135}{20}{}{equation.Alph0.135}{}}
\newlabel{completenesrelationspositionrep2}{{\tmspace  +\thinmuskip {.1667em}H}{20}{}{equation.Alph0.135}{}}
\newlabel{g2opfirstfromoperatorsnotgfcomparelstod}{{136}{20}{}{equation.Alph0.136}{}}
\newlabel{g2opseconddbasisordered}{{137}{20}{}{equation.Alph0.137}{}}
\newlabel{g2opfirstfromoperatorsnotgfcomparelstodordered}{{138}{20}{}{equation.Alph0.138}{}}
\newlabel{g2secondlsop}{{139}{20}{}{equation.Alph0.139}{}}
\bibcite{feynman1979book}{{1}{}{{}}{{}}}
\bibcite{hyldgaard2012jopcm}{{2}{}{{}}{{}}}
\newlabel{g2seconddbasismatelemnmij}{{140}{21}{}{equation.Alph0.140}{}}
\newlabel{g2seconddbasismatelemnmijordered}{{141}{21}{}{equation.Alph0.141}{}}
\newlabel{g2decomposedbasisnmijbrakets}{{142}{21}{}{equation.Alph0.142}{}}
\newlabel{completenesrelationspositionrep1after}{{143}{21}{}{equation.Alph0.143}{}}
\newlabel{completenesrelationspositionrep2after}{{144}{21}{}{equation.Alph0.144}{}}
\newlabel{g2opfirstdbasismatelemnmijordered}{{145}{21}{}{equation.Alph0.145}{}}
\@writefile{toc}{\contentsline {section}{\numberline {}References}{21}{section*.31}}
\bibcite{hyldgaard2008prb}{{3}{}{{}}{{}}}
\bibcite{hershfield1993reformulation}{{4}{}{{}}{{}}}
\bibcite{ness2014nonequilibriumdensity}{{5}{}{{}}{{}}}
\bibcite{ness2017nonequilibriumthermodynamics}{{6}{}{{}}{{}}}
\bibcite{stefanucci2013book}{{7}{}{{}}{{}}}
\bibcite{stefanucci2009kadanoff}{{8}{}{{}}{{}}}
\bibcite{stefanucci2004partitionfree}{{9}{}{{}}{{}}}
\bibcite{datta2005book}{{10}{}{{}}{{}}}
\bibcite{datta1995book}{{11}{}{{}}{{}}}
\bibcite{han2007mapping}{{12}{}{{}}{{}}}
\bibcite{han2007relativistic}{{13}{}{{}}{{}}}
\bibcite{han2011effective}{{14}{}{{}}{{}}}
\bibcite{han2012imaginary}{{15}{}{{}}{{}}}
\bibcite{han2013energy}{{16}{}{{}}{{}}}
\bibcite{caroli1971direct}{{17}{}{{}}{{}}}
\bibcite{schlegel1971redundant}{{18}{}{{}}{{}}}
\bibcite{schlegel2003qmmm}{{19}{}{{}}{{}}}
\bibcite{frish2009gaussian}{{20}{}{{}}{{}}}
\global \chardef \firstnote@num20\relax 
\providecommand\NAT@force@numbers{}\NAT@force@numbers
\bibstyle{apsrev}
\newlabel{LastPage}{{}{22}{}{page.22}{}}
\newlabel{LastBibItem}{{20}{22}{}{section*.31}{}}
